{
    "parkings": [
        {
            "_id": "5a9d2052db6dc42c7ceed8a1",
            "id": 1,
            "title": "ที่จอดรถ เขตอุตสาหกรรมซอฟต์แวร์ประเทศไทย",
            "lat": 13.9042099,
            "lng": 100.529741,
            "marker2x": "/images/icons/premiumIcon@2x.png",
            "address": "99/31 หมู่4 ซอย แจ้งวัฒนะ-ปากเกร็ด 19 ตำบลคลองเกลือ อำเภอ ปากเกร็ด นนทบุรี 11120",
            "phone": "",
            "photo": "/images/kparking/soho",
            "photo_file": "/images/kparking/soho.jpeg",
            "number_max": 100,
            "open": "00:00-23:59 น.",
            "price": [
            "รายชั่วโมง 30 บาท",
            "รายวัน 120 บาท",
            "รายเดือน 1200 บาท",
            "สติกเกอร์ จอดรถ 50 บาท/ปี"
            ],
            "detail": [
            "เปิดบริการ 00:00-23:59 น.",
            "จอดรถ 50 บาท/วัน",
            "จอดรถได้ฟรี",
            "มีที่จอดรถ 100 คัน"
            ],
            "landmark": "ตรงข้าม Central แจ้งวัฒนะ",
            "facilitate": [],
            "created_at": "2018-03-05T10:47:46.680Z"
        },
        {
            "_id": "5a9d2052db6dc42c7ceed8a2",
            "id": 2,
            "title": "ที่จอดรถ ตลาดกันเอง แจ้งวัฒนะ-ปากเกร็ด 19",
            "lat": 13.9050303,
            "lng": 100.529328,
            "marker2x": "/images/icons/premiumIcon@2x.png",
            "address": "ซอยแจ้งวัฒนะ-ปากเกร็ด19 ถนนแจ้งวัฒนะ ตำบล ปากเกร็ด อำเภอ ปากเกร็ด นนทบุรี 11120",
            "phone": "",
            "photo": "/images/kparking/soho",
            "photo_file": "/images/kparking/soho.jpeg",
            "number_max": 20,
            "open": "06:00-23:00 น.",
            "price": [
            "รายวัน : 50 บาท"
            ],
            "detail": [
            "เปิดบริการ 06:00-23:00 น.",
            "จอดรถ 50 บาท/วัน",
            "มีที่จอดรถ 20 คัน"
            ],
            "landmark": "",
            "facilitate": [],
            "created_at": "2018-03-05T10:47:46.680Z"
        },
        {
            "_id": "5a9d2052db6dc42c7ceed8a3",
            "id": 3,
            "title": "ที่จอดรถ V-GROUP แจ้งวัฒนะ-ปากเกร็ด 21",
            "lat": 13.9056643,
            "lng": 100.5308696,
            "marker2x": "/images/icons/freeIcon@2x.png",
            "address": "ซอยแจ้งวัฒนะ-ปากเกร็ด21 ถนนแจ้งวัฒนะ ตำบลคลองเกลือ อำเภอ ปากเกร็ด นนทบุรี 11120",
            "phone": "",
            "photo": "/images/kparking/soho",
            "photo_file": "/images/kparking/soho.jpeg",
            "number_max": 30,
            "open": "05:00-24:00 น.",
            "price": [
            "รายวัน : 30 บาท"
            ],
            "detail": [
            "เปิดบริการ 05:00-24:00 น.",
            "จอดรถ 30 บาท/วัน",
            "มีที่จอดรถ 30 คัน"
            ],
            "landmark": "",
            "facilitate": [],
            "created_at": "2018-03-05T10:47:46.680Z"
        },
        {
            "_id": "5a9d2052db6dc42c7ceed8a4",
            "id": 4,
            "title": "ที่จอดรถ BTS บางหว้า ปั๊มเซลล์(Shell) กรุงเทพมหานคร",
            "lat": 13.7205208,
            "lng": 100.4558348,
            "marker2x": "/images/icons/freeIcon@2x.png",
            "address": "204/25 ถนนเพชรเกษม34 เเขวงปากคลองภาษีเจริญ เขตภาษีเจริญ กรุงเทพมหานคร 10160",
            "phone": "",
            "photo": "/images/kparking/soho.jpeg",
            "photo_file": "/images/kparking/soho.jpeg",
            "number_max": 15,
            "open": "05:00-23:00 น.",
            "price": [
            "รายวัน : 50 บาท"
            ],
            "detail": [
            "สถานีบริการน้ำมันตั้งอยู่บนถนนเพชรเกษม ห่างจากประตูมหาวิทยาลัยสยาม 400 เมตรเเละห่างจากจากสถานี BTSบางหว้าประมาณ 200 เมตร มีที่จอดรถ15 คัน หากเติมน้ำมันที่ปั๊มสามารถจอดได้ฟรีตลอดทั้งวัน",
            "เปิดบริการ 05:00 - 23:00น.",
            "จอดรถได้ฟรี 20 นาที เกิน 20 นาที 50 บาท/วัน",
            "มีที่จอดรถ 15 คัน",
            "หากเติมน้ำมันที่ปั๊มสามารถจอดได้ฟรีตลอดทั้งวัน"
            ],
            "landmark": "",
            "facilitate": [],
            "created_at": "2018-03-05T10:47:46.680Z"
        },
        {
            "_id": "5a9d2052db6dc42c7ceed8a5",
            "id": 5,
            "title": "ร้านอาหารเยสอินดีด Yes indeed",
            "lat": 13.9057492,
            "lng": 100.5259544,
            "marker2x": "/images/icons/freeIcon@2x.png",
            "address": "204/25 ถนนเพชรเกษม34 เเขวงปากคลองภาษีเจริญ เขตภาษีเจริญ กรุงเทพมหานคร 10160",
            "phone": "",
            "photo": "/images/kparking/soho",
            "photo_file": "/images/kparking/soho.jpeg",
            "number_max": 15,
            "open": "05:00-23:00 น.",
            "price": [
            "รายวัน : 50 บาท"
            ],
            "detail": [
            "สถานีบริการน้ำมันตั้งอยู่บนถนนเพชรเกษม ห่างจากประตูมหาวิทยาลัยสยาม 400 เมตรเเละห่างจากจากสถานี BTSบางหว้าประมาณ 200 เมตร มีที่จอดรถ15 คัน หากเติมน้ำมันที่ปั๊มสามารถจอดได้ฟรีตลอดทั้งวัน",
            "เปิดบริการ 05:00 - 23:00น.",
            "จอดรถได้ฟรี 20 นาที เกิน 20 นาที 50 บาท/วัน",
            "มีที่จอดรถ 15 คัน",
            "หากเติมน้ำมันที่ปั๊มสามารถจอดได้ฟรีตลอดทั้งวัน"
            ],
            "landmark": "",
            "facilitate": [],
            "created_at": "2018-03-05T10:47:46.680Z"
        }
    ]
}